Task-4/iiitb_rv32i.vcd
$date
	Sat Feb 01 22:11:35 2025
$end
$version
	Icarus Verilog
$end
$timescale
	1s
$end
$scope module iiitb_rv32i_tb $end
$var wire 32 ! WB_OUT [31:0] $end
$var wire 32 " NPC [31:0] $end
$var reg 1 # RN $end
$var reg 1 $ clk $end
$scope module rv32 $end
$var wire 1 # RN $end
$var wire 1 $ clk $end
$var parameter 3 % ADD $end
$var parameter 3 & ADDI $end
$var parameter 3 ' AND $end
$var parameter 3 ( ANDI $end
$var parameter 7 ) AR_TYPE $end
$var parameter 3 * BEQ $end
$var parameter 3 + BNE $end
$var parameter 7 , BR_TYPE $end
$var parameter 3 - LW $end
$var parameter 7 . M_TYPE $end
$var parameter 3 / OR $end
$var parameter 3 0 ORI $end
$var parameter 7 1 SH_TYPE $end
$var parameter 3 2 SLL $end
$var parameter 3 3 SLT $end
$var parameter 3 4 SRL $end
$var parameter 3 5 SUB $end
$var parameter 3 6 SUBI $end
$var parameter 3 7 SW $end
$var parameter 3 8 XOR $end
$var parameter 3 9 XORI $end
$var reg 1 : BR_EN $end
$var reg 32 ; EX_MEM_ALUOUT [31:0] $end
$var reg 32 < EX_MEM_IR [31:0] $end
$var reg 32 = ID_EX_A [31:0] $end
$var reg 32 > ID_EX_B [31:0] $end
$var reg 32 ? ID_EX_IMMEDIATE [31:0] $end
$var reg 32 @ ID_EX_IR [31:0] $end
$var reg 32 A ID_EX_NPC [31:0] $end
$var reg 32 B ID_EX_RD [31:0] $end
$var reg 32 C IF_ID_IR [31:0] $end
$var reg 32 D IF_ID_NPC [31:0] $end
$var reg 32 E MEM_WB_ALUOUT [31:0] $end
$var reg 32 F MEM_WB_IR [31:0] $end
$var reg 32 G MEM_WB_LDM [31:0] $end
$var reg 32 H NPC [31:0] $end
$var reg 32 I WB_OUT [31:0] $end
$upscope $end
$upscope $end
$enddefinitions $end
$comment Show the parameter values. $end
$dumpall
b100 9
b100 8
b1 7
b1 6
b1 5
b1 4
b101 3
b0 2
b11 1
b11 0
b11 /
b1 .
b0 -
b10 ,
b1 +
b0 *
b0 )
b10 (
b10 '
b0 &
b0 %
$end
#0
$dumpvars
bx I
b0 H
bx G
bx F
bx E
bx D
bx C
bx B
bx A
bx @
bx ?
bx >
bx =
bx <
bx ;
0:
1$
1#
b0 "
bx !
$end
#3
0$
#5
0#
#6
b1 D
b10001000001000001100000000 C
b1 "
b1 H
1$
#9
0$
#12
b1 A
b100010 ?
b10001000001000001100000000 @
b110 B
b10 >
b1 =
b10 D
b10001000001001001110000000 C
b10 "
b10 H
1$
#15
0$
#18
b11 ;
b10001000001000001100000000 <
b10 A
b10001000001001001110000000 @
bx B
b11 D
b10001100001010010000000000 C
b11 "
b11 H
1$
#21
0$
#24
b11 A
b100011 ?
b10001100001010010000000000 @
b11 >
b11111111111111111111111111111111 ;
b10001000001001001110000000 <
b11 E
b10001000001000001100000000 F
b100 D
b10010100010011010010000000 C
b100 "
b100 H
1$
#27
0$
#30
b11 !
b11 I
b11111111111111111111111111111111 E
b10001000001001001110000000 F
b1 ;
b10001100001010010000000000 <
b100 A
b100101 ?
b10010100010011010010000000 @
b101 >
b10 =
b101 D
b10010000001100010100000000 C
b101 "
b101 H
1$
#33
0$
#36
b101 A
b100100 ?
b10010000001100010100000000 @
b100 >
b1 =
b111 ;
b10010100010011010010000000 <
b1 E
b10001100001010010000000000 F
b11111111111111111111111111111111 !
b11111111111111111111111111111111 I
b110 D
b10010000010101010110000000 C
b110 "
b110 H
1$
#39
0$
#42
b1 !
b1 I
b111 E
b10010100010011010010000000 F
b101 ;
b10010000001100010100000000 <
b110 A
b10010000010101010110000000 @
b10 =
b111 D
b10100100000011000000000 C
b111 "
b111 H
1$
#45
0$
#48
b111 A
b101 ?
b10100100000011000000000 @
b101 >
b100 =
b1 ;
b10010000010101010110000000 <
b101 E
b10010000001100010100000000 F
b111 !
b111 I
b1000 D
b1000001001000110000001 C
b1000 "
b1000 H
1$
#51
0$
#54
b101 !
b101 I
b1 E
b10010000010101010110000000 F
b1001 ;
b10100100000011000000000 <
b1000 A
b10 ?
b1000001001000110000001 @
b11 B
b10 >
b1 =
b1001 D
b1000001000011010000001 C
b1001 "
b1001 H
1$
#57
0$
#60
b1001 A
b1000001000011010000001 @
bx B
b11 ;
b1000001001000110000001 <
b1001 E
b10100100000011000000000 F
b1 !
b1 I
b1010 D
b111100000000000000000010 C
b1010 "
b1010 H
1$
#63
0$
#66
b1001 !
b1001 I
b1000001001000110000001 F
b1000001000011010000001 <
b1010 A
b1111 ?
b111100000000000000000010 @
b0 B
bx >
b0 =
b1011 D
bx C
b1011 "
b1011 H
1$
#69
0$
#72
b1011 A
bx ?
bx @
bx B
bx =
1:
b11001 ;
b111100000000000000000010 <
b11 G
b1000001000011010000001 F
b1100 D
b1100 "
b1100 H
1$
#75
0$
#78
b11 !
b11 I
b111100000000000000000010 F
bx <
b1100 A
b1101 D
0:
b11001 "
b11001 H
1$
#81
0$
#84
b1101 A
bx F
b11010 D
b1000010000011100000000 C
b11010 "
b11010 H
1$
#87
0$
#90
b11010 A
b10 ?
b1000010000011100000000 @
b10 >
b10 =
b11011 D
bx C
b11011 "
b11011 H
1$
#93
0$
#96
b11011 A
bx ?
bx @
bx >
bx =
b100 ;
b1000010000011100000000 <
b11100 D
b11100 "
b11100 H
1$
#99
0$
#102
b100 E
b1000010000011100000000 F
bx <
b11100 A
b11101 D
b11101 "
b11101 H
1$
#105
0$
#108
b11101 A
bx F
b100 !
b100 I
b11110 D
b11110 "
b11110 H
1$
#111
0$
#114
b11110 A
b11111 D
b11111 "
b11111 H
1$
#117
0$
#120
b11111 A
b100000 D
b100000 "
b100000 H
1$
#123
0$
#126
b100000 A
b100001 D
b100001 "
b100001 H
1$
#129
0$
#132
b100001 A
b100010 D
b100010 "
b100010 H
1$
#135
0$
#138
b100010 A
b100011 D
b100011 "
b100011 H
1$
#141
0$
#144
b100011 A
b100100 D
b100100 "
b100100 H
1$
#147
0$
#150
b100100 A
b100101 D
b100101 "
b100101 H
1$
#153
0$
#156
b100101 A
b100110 D
b100110 "
b100110 H
1$
#159
0$
#162
b100110 A
b100111 D
b100111 "
b100111 H
1$
#165
0$
#168
b100111 A
b101000 D
b101000 "
b101000 H
1$
#171
0$
#174
b101000 A
b101001 D
b101001 "
b101001 H
1$
#177
0$
#180
b101001 A
b101010 D
b101010 "
b101010 H
1$
#183
0$
#186
b101010 A
b101011 D
b101011 "
b101011 H
1$
#189
0$
#192
b101011 A
b101100 D
b101100 "
b101100 H
1$
#195
0$
#198
b101100 A
b101101 D
b101101 "
b101101 H
1$
#201
0$
#204
b101101 A
b101110 D
b101110 "
b101110 H
1$
#207
0$
#210
b101110 A
b101111 D
b101111 "
b101111 H
1$
#213
0$
#216
b101111 A
b110000 D
b110000 "
b110000 H
1$
#219
0$
#222
b110000 A
b110001 D
b110001 "
b110001 H
1$
#225
0$
#228
b110001 A
b110010 D
b110010 "
b110010 H
1$
#231
0$
#234
b110010 A
b110011 D
b110011 "
b110011 H
1$
#237
0$
#240
b110011 A
b110100 D
b110100 "
b110100 H
1$
#243
0$
#246
b110100 A
b110101 D
b110101 "
b110101 H
1$
#249
0$
#252
b110101 A
b110110 D
b110110 "
b110110 H
1$
#255
0$
#258
b110110 A
b110111 D
b110111 "
b110111 H
1$
#261
0$
#264
b110111 A
b111000 D
b111000 "
b111000 H
1$
#267
0$
#270
b111000 A
b111001 D
b111001 "
b111001 H
1$
#273
0$
#276
b111001 A
b111010 D
b111010 "
b111010 H
1$
#279
0$
#282
b111010 A
b111011 D
b111011 "
b111011 H
1$
#285
0$
#288
b111011 A
b111100 D
b111100 "
b111100 H
1$
#291
0$
#294
b111100 A
b111101 D
b111101 "
b111101 H
1$
#297
0$
#300
b111101 A
b111110 D
b111110 "
b111110 H
1$
